{
	"info": {
		"_postman_id": "2209f0f4-fc4a-4518-9d74-6185028e0e8e",
		"name": "Logysto",
		"schema": "https://schema.getpostman.com/json/collection/v2.1.0/collection.json"
	},
	"item": [
		{
			"name": "users",
			"item": [
				{
					"name": "CREATE USERS",
					"request": {
						"method": "POST",
						"header": [],
						"body": {
							"mode": "raw",
							"raw": "{\n    \"name\": \"Adrian\",\n    \"lastName\": \"Vergara\",\n    \"phone\": \"321564859\",\n    \"address\": \"Calle 11 # 19D 22\",\n    \"email\": \"adrianvergara@gmail.com\",\n    \"password\": \"Qaz123\"\n}",
							"options": {
								"raw": {
									"language": "json"
								}
							}
						},
						"url": {
							"raw": "http://localhost:3200/api/v1/users",
							"protocol": "http",
							"host": [
								"localhost"
							],
							"port": "3200",
							"path": [
								"api",
								"v1",
								"users"
							]
						}
					},
					"response": []
				},
				{
					"name": "GET USERS",
					"request": {
						"method": "GET",
						"header": [
							{
								"key": "Authorization",
								"value": "eyJhbGciOiJIUzI1NiIsInR5cCI6IkpXVCJ9.eyJ1c2VySWQiOjUsImVtYWlsIjoiYWRyaWFuQGdtYWlsLmNvbSIsImlhdCI6MTYyOTA2NTg1NCwiZXhwIjoxNjI5MDY5NDU0fQ.BMIBU77oSXYqll41zkdXy8Ifr4Fj__sgfeMbPQACXxE",
								"type": "text"
							}
						],
						"url": {
							"raw": "http://localhost:3200/api/v1/users",
							"protocol": "http",
							"host": [
								"localhost"
							],
							"port": "3200",
							"path": [
								"api",
								"v1",
								"users"
							]
						}
					},
					"response": []
				}
			]
		},
		{
			"name": "auth",
			"item": [
				{
					"name": "AUTHENTICATE",
					"request": {
						"method": "POST",
						"header": [],
						"body": {
							"mode": "raw",
							"raw": "{\n    \"email\": \"adrian@gmail.com\",\n    \"password\": \"Qaz123\"\n}",
							"options": {
								"raw": {
									"language": "json"
								}
							}
						},
						"url": {
							"raw": "http://localhost:3200/api/v1/auth",
							"protocol": "http",
							"host": [
								"localhost"
							],
							"port": "3200",
							"path": [
								"api",
								"v1",
								"auth"
							]
						}
					},
					"response": []
				},
				{
					"name": "REFRESH TOKEN",
					"request": {
						"method": "POST",
						"header": [
							{
								"key": "refreshToken",
								"value": "eyJhbGciOiJIUzI1NiIsInR5cCI6IkpXVCJ9.eyJ1c2VySWQiOjUsImVtYWlsIjoiYWRyaWFuQGdtYWlsLmNvbSIsImlhdCI6MTYyOTA2NTg1NCwiZXhwIjoxNjI5MDczMDU0fQ._qGaRRRuIJW4Z2mcXpFj1ZgAkupvwGKDfHVTewW4GvA",
								"type": "text"
							}
						],
						"url": {
							"raw": "http://localhost:3200/api/v1/auth/refresh-token",
							"protocol": "http",
							"host": [
								"localhost"
							],
							"port": "3200",
							"path": [
								"api",
								"v1",
								"auth",
								"refresh-token"
							]
						}
					},
					"response": []
				}
			]
		},
		{
			"name": "geolocation",
			"item": [
				{
					"name": "GET GEOLOCATION",
					"request": {
						"method": "GET",
						"header": [
							{
								"key": "Authorization",
								"value": "eyJhbGciOiJIUzI1NiIsInR5cCI6IkpXVCJ9.eyJ1c2VySWQiOjUsImVtYWlsIjoiYWRyaWFuQGdtYWlsLmNvbSIsImlhdCI6MTYyOTA2NTkyMywiZXhwIjoxNjI5MDY5NTIzfQ.o939tGzYbhyJW7rCUMUj-jtMqcwKqivZis3b7LYCOjM",
								"type": "text"
							}
						],
						"url": {
							"raw": "http://localhost:3200/api/v1/geolocations/address/calle 11 n 19d 22, valledupar",
							"protocol": "http",
							"host": [
								"localhost"
							],
							"port": "3200",
							"path": [
								"api",
								"v1",
								"geolocations",
								"address",
								"calle 11 n 19d 22, valledupar"
							]
						}
					},
					"response": []
				}
			]
		}
	]
}